<svg width="330" height="196" viewBox="0 0 330 196" fill="none" xmlns="http://www.w3.org/2000/svg">
<g filter="url(#filter0_b_735_22017)">
<path fill-rule="evenodd" clip-rule="evenodd" d="M10 0C4.47715 0 0 4.47716 0 10V150.297C0 155.82 4.47715 160.297 9.99999 160.297H256.866C264.423 160.297 271.335 164.557 274.731 171.307L286.131 193.959C287.239 196.161 290.382 196.161 291.49 193.959L303.315 170.461C306.451 164.229 312.832 160.297 319.807 160.297V160.297C325.33 160.297 329.807 155.82 329.807 150.297V10C329.807 4.47715 325.33 0 319.807 0H10Z" fill="url(#paint0_linear_735_22017)"/>
</g>
<defs>
<filter id="filter0_b_735_22017" x="-40" y="-40" width="409.808" height="275.61" filterUnits="userSpaceOnUse" color-interpolation-filters="sRGB">
<feFlood flood-opacity="0" result="BackgroundImageFix"/>
<feGaussianBlur in="BackgroundImage" stdDeviation="20"/>
<feComposite in2="SourceAlpha" operator="in" result="effect1_backgroundBlur_735_22017"/>
<feBlend mode="normal" in="SourceGraphic" in2="effect1_backgroundBlur_735_22017" result="shape"/>
</filter>
<linearGradient id="paint0_linear_735_22017" x1="329.807" y1="-3.58349e-05" x2="5.8866" y2="85.4608" gradientUnits="userSpaceOnUse">
<stop stop-color="#ECAAD3"/>
<stop offset="1" stop-color="#DF687B"/>
</linearGradient>
</defs>
</svg>
