<svg width="33" height="32" viewBox="0 0 33 32" fill="none" xmlns="http://www.w3.org/2000/svg">
<circle cx="16.5" cy="16" r="16" transform="rotate(90 16.5 16)" fill="#DEEFF1"/>
<path d="M15.7627 20.6265C16.1591 21.0589 16.8407 21.0589 17.2371 20.6265L20.7052 16.843C21.1206 16.3898 21.8352 16.3898 22.2506 16.843C22.618 17.2438 22.618 17.8589 22.2506 18.2596L17.2371 23.7291C16.8407 24.1615 16.1591 24.1615 15.7627 23.7291L10.7492 18.2596C10.3818 17.8589 10.3818 17.2438 10.7492 16.843C11.1646 16.3898 11.8792 16.3898 12.2946 16.843L15.7627 20.6265Z" fill="#357A9B"/>
<path d="M15.7627 14.2266C16.1591 14.659 16.8407 14.659 17.2371 14.2266L20.7052 10.4431C21.1206 9.98986 21.8352 9.98986 22.2506 10.4431C22.618 10.8439 22.618 11.459 22.2506 11.8597L17.2371 17.3292C16.8407 17.7616 16.1591 17.7616 15.7627 17.3292L10.7492 11.8597C10.3818 11.459 10.3818 10.8439 10.7492 10.4431C11.1646 9.98986 11.8792 9.98986 12.2946 10.4431L15.7627 14.2266Z" fill="#357A9B"/>
</svg>
