<svg width="133" height="33" viewBox="0 0 133 33" fill="none" xmlns="http://www.w3.org/2000/svg">
<path fill-rule="evenodd" clip-rule="evenodd" d="M62.5773 13.1626C63.5993 12.3725 64.8433 11.8465 66.1493 11.8092C67.7193 11.6868 69.2943 12.2263 70.5153 13.2002C70.9739 13.5038 71.292 13.9852 71.6107 14.4674C71.6797 14.5719 71.7488 14.6764 71.8193 14.7792V12.1475H74.0303V31.9227H71.8193C71.8197 30.843 71.8194 29.7607 71.819 28.679C71.8186 27.3275 71.8182 25.9768 71.8193 24.633C71.7933 24.2927 71.4553 24.7295 71.4793 24.836C71.448 24.8742 71.4164 24.9132 71.3844 24.9527C71.0773 25.3314 70.7355 25.7531 70.3633 25.9827C68.7243 27.2435 66.4513 27.5618 64.4893 26.9425C63.8777 26.7842 63.2981 26.4174 62.7815 26.0904C62.6925 26.0341 62.6054 25.979 62.5203 25.9263C61.8073 25.3407 61.3233 24.6551 60.8723 23.8648C59.7123 21.6428 59.5833 18.9478 60.3083 16.5677C60.5593 15.7158 61.0033 14.9533 61.5263 14.2396C61.7673 13.8511 62.2123 13.4222 62.5773 13.1626ZM69.8153 14.7228C69.0913 14.0841 67.9393 13.7992 66.9243 13.8017C66.4663 13.7888 66.0043 13.835 65.5673 13.9755C64.6673 14.187 63.9323 14.784 63.3713 15.4747C62.5373 16.5744 62.2763 17.9921 62.2213 19.3434C62.2023 20.9004 62.5093 22.6006 63.5853 23.7757C64.1623 24.4566 64.9263 24.9686 65.8263 25.1222C67.1853 25.3578 68.7413 25.205 69.8153 24.2909C70.5453 23.7082 71.1023 22.9581 71.3923 22.0702C72.0383 20.2342 71.9643 18.1321 71.1383 16.3644C70.8253 15.6803 70.3933 15.1884 69.8153 14.7228Z" fill="black"/>
<path d="M49.9064 6.15106C48.2234 6.21806 46.5104 6.65686 45.1624 7.69246C44.8854 7.87526 44.5794 8.20516 44.3884 8.49186C43.5654 9.52556 43.1444 10.869 43.2754 12.1888C43.3234 13.149 43.6794 14.0825 44.3304 14.7981C44.5214 15.0839 44.8894 15.4084 45.1894 15.5958C46.9304 16.9417 49.1944 17.1917 51.2494 17.8037C52.5324 18.1923 54.0174 18.456 54.8574 19.5915C55.5684 20.4553 55.5484 21.7537 55.1604 22.7683C54.8274 23.5994 54.1014 24.1935 53.3264 24.6105C51.7054 25.3083 49.8264 25.263 48.1484 24.7956C46.8844 24.4109 45.7634 23.6638 44.9424 22.6279C44.7324 22.2875 44.5464 22.0683 44.2174 22.4615C43.7204 22.8082 43.2224 23.1548 42.7244 23.5014C43.1244 24.126 43.5964 24.7256 44.1604 25.1556C45.1264 25.8899 46.1724 26.5394 47.3604 26.844C49.5814 27.5024 52.0474 27.4338 54.1964 26.5466C55.0634 26.0962 55.8914 25.6411 56.5044 24.8855C57.2984 23.9529 57.8074 22.6447 57.8324 21.37C57.8974 20.1462 57.5004 18.9049 56.6904 17.9749C56.5364 17.733 56.2574 17.4857 55.9904 17.3311C55.5864 16.9739 55.1284 16.7498 54.6324 16.483C52.4224 15.3831 49.9014 15.1457 47.6424 14.1844C46.9514 13.8425 46.2584 13.3689 45.8994 12.6739C45.3614 11.4872 45.7804 9.98516 46.8334 9.23246C47.7534 8.49936 49.0164 8.28366 50.1824 8.27526C52.2064 8.25466 54.2594 9.13276 55.4814 10.7566C56.0864 10.3054 56.6904 9.85426 57.2954 9.40306C56.7654 8.66846 56.1024 8.09936 55.3764 7.61276C53.7734 6.56456 51.8224 6.05286 49.9064 6.15106Z" fill="black"/>
<path d="M77.7625 21.7343C77.7645 23.026 78.0285 24.3681 78.8205 25.4187C79.1675 25.9789 79.8505 26.4242 80.4575 26.754C82.0455 27.4844 83.9505 27.3728 85.5215 26.6567C86.2375 26.2714 86.9255 25.792 87.3825 25.1743C87.5915 24.9821 87.8275 24.4365 87.9495 24.4074C87.9495 25.2395 87.9495 26.0716 87.9495 26.9037C88.6865 26.9037 89.4235 26.9037 90.1605 26.9037C90.1605 21.985 90.1605 17.0662 90.1605 12.1475C89.4235 12.1475 88.6865 12.1475 87.9495 12.1475C87.9335 15.1612 87.9845 18.1766 87.9115 21.1892C87.7325 22.4022 87.1785 23.5736 86.1725 24.3096C84.9535 25.2336 83.1865 25.4581 81.7505 24.8923C80.7435 24.4426 80.1705 23.3445 80.0985 22.2658C79.9255 20.3789 80.0485 18.4797 80.0115 16.5875C80.0115 15.1075 80.0115 13.6275 80.0115 12.1475C79.2615 12.1475 78.5115 12.1475 77.7625 12.1475C77.7625 15.3431 77.7625 18.5387 77.7625 21.7343Z" fill="black"/>
<path fill-rule="evenodd" clip-rule="evenodd" d="M93.8505 13.5953C95.4205 12.4922 97.3205 11.8715 99.2405 11.8095C100.67 11.7291 102.2 11.9849 103.4 12.7717C104.33 13.2829 104.89 14.3685 105.06 15.4186C105.111 17.8541 105.106 20.2907 105.1 22.7273C105.096 24.1196 105.093 25.5119 105.1 26.904H102.96V25.7762C102.935 25.6947 102.948 25.5825 102.961 25.4691C102.985 25.2727 103.008 25.0729 102.83 25.0243C102.695 25.1248 102.608 25.2582 102.519 25.3943C102.417 25.5506 102.312 25.7104 102.13 25.8278C101.48 26.4145 100.64 26.8765 99.7405 27.0816C98.2005 27.3772 96.5005 27.3134 95.1205 26.5281C95.0216 26.4568 94.9185 26.389 94.8162 26.3218C94.5357 26.1375 94.2617 25.9575 94.1005 25.7198C93.6805 25.1898 93.3405 24.6065 93.2005 23.9379C92.9705 22.7532 93.0205 21.3963 93.8205 20.4188C94.1905 19.8504 94.7905 19.4088 95.4305 19.1085C96.4676 18.6417 97.5994 18.4819 98.7267 18.3228C99.1537 18.2625 99.5801 18.2023 100 18.1255C100.8 17.9725 101.75 17.7542 102.3 17.2232C102.97 16.7163 103.05 15.7021 102.67 14.9955C101.99 13.9541 100.6 13.7296 99.4205 13.7456C97.8005 13.8104 96.1205 14.2172 94.8205 15.2119L94.8204 15.2119C94.5004 14.673 94.1804 14.1341 93.8505 13.5953ZM102.892 19.9514C102.884 19.552 102.875 19.1543 102.89 18.7646V18.6331C102.65 18.874 102.36 19.0401 102.04 19.2158C101.189 19.5449 100.294 19.7011 99.3977 19.8573C98.5985 19.9967 97.7989 20.1361 97.0305 20.3983C96.3405 20.6242 95.6905 21.0704 95.4805 21.7916C95.2105 22.623 95.3205 23.6515 95.8805 24.3288C96.6605 25.2626 98.0105 25.4068 99.1604 25.3112C100.46 25.2108 101.73 24.5324 102.36 23.3837C102.943 22.3269 102.918 21.131 102.892 19.9514Z" fill="black"/>
<path d="M115.29 11.866C114.11 11.9575 112.96 12.4932 112.14 13.261C111.78 13.6541 111.45 14.1467 111.14 14.6292C111.14 13.8021 111.14 12.975 111.14 12.1479C110.4 12.1479 109.66 12.1479 108.93 12.1479C108.93 17.0667 108.93 21.9854 108.93 26.9041C109.66 26.9041 110.4 26.9041 111.14 26.9041C111.16 24.0274 111.09 21.1474 111.18 18.2728C111.35 16.8808 111.94 15.4638 113.13 14.6481C114.19 13.8531 115.71 13.7922 116.94 14.2721C117.2 14.1388 117.1 13.6876 117.24 13.4325C117.33 13.0669 117.43 12.7014 117.52 12.3359C116.86 11.9516 116.06 11.8207 115.29 11.866Z" fill="black"/>
<path fill-rule="evenodd" clip-rule="evenodd" d="M121.35 12.9939C122.42 12.2898 123.67 11.8317 124.96 11.8097C126.48 11.7168 128.1 12.0908 129.35 12.9751C129.371 12.9898 129.391 13.0046 129.412 13.0193C129.863 13.3435 130.324 13.6752 130.62 14.1256C131.89 15.7161 132.35 17.8376 132.1 19.8363H121.75C121.622 19.8726 121.465 19.8543 121.31 19.8359C121.055 19.8059 120.801 19.7761 120.67 19.9867C120.7 21.3267 121.03 22.7843 122.02 23.7363C123.21 25.0801 125.19 25.4421 126.91 25.1123C128.14 24.8973 129.26 24.2184 130.03 23.2387C130.52 23.6898 131.02 24.141 131.52 24.5921C131.16 25.0355 130.78 25.398 130.33 25.7031C128.89 26.9012 126.95 27.3352 125.1 27.2328C123.72 27.1906 122.35 26.7546 121.22 25.9456C120.95 25.7563 120.64 25.5209 120.36 25.2365C119.68 24.4556 119.04 23.4815 118.74 22.4317C118.05 20.1411 118.18 17.5648 119.27 15.4188C119.68 14.7327 120.09 14.0769 120.65 13.544C120.817 13.3994 120.999 13.2611 121.167 13.1339C121.231 13.0856 121.293 13.0388 121.35 12.9939ZM129.34 15.9066C128.66 14.6006 127.23 13.7774 125.75 13.6895C124.69 13.6151 123.58 13.8104 122.68 14.3934C122.593 14.4829 122.479 14.5735 122.364 14.6651C122.177 14.8138 121.987 14.965 121.9 15.1181C121.09 15.9004 120.83 17.0635 120.69 18.1445H129.87C129.86 17.3737 129.67 16.6026 129.34 15.9066Z" fill="black"/>
<path fill-rule="evenodd" clip-rule="evenodd" d="M26.9824 0.884766H5.53341C2.58441 0.884766 0.17041 3.28497 0.17041 6.21887V27.5525C0.17041 30.485 2.58441 32.8848 5.53341 32.8848H26.9824C29.9314 32.8848 32.3454 30.485 32.3454 27.5525V6.21887C32.3454 3.28497 29.9314 0.884766 26.9824 0.884766ZM26.4944 25.3722C26.4944 26.3043 25.7274 27.0654 24.7894 27.0654H7.72541C6.78741 27.0654 6.01941 26.3043 6.01941 25.3722V8.40017C6.01941 7.46757 6.78741 6.70417 7.72541 6.70417H24.7894C25.7274 6.70417 26.4944 7.46757 26.4944 8.40017V25.3722ZM19.6724 21.2488C20.2074 21.2488 20.6464 20.8137 20.6464 20.2786V13.4914C20.6464 12.9582 20.2074 12.5222 19.6724 12.5222H12.8484C12.3114 12.5222 11.8744 12.9582 11.8744 13.4914V20.2786C11.8744 20.8137 12.3114 21.2488 12.8484 21.2488H19.6724Z" fill="black"/>
</svg>
